<?xml version="1.0" encoding="utf-8"?>
<!-- Generator: Adobe Illustrator 19.2.0, SVG Export Plug-In . SVG Version: 6.00 Build 0)  -->
<svg version="1.1" id="taxes" xmlns="http://www.w3.org/2000/svg" xmlns:xlink="http://www.w3.org/1999/xlink" x="0px" y="0px"
	 viewBox="0 0 64 64" style="enable-background:new 0 0 64 64;" xml:space="preserve">
<style type="text/css">
	.st0{fill:#E9EAEB;}
	.st1{fill:#FFFFFF;}
	.st2{fill:#A3D4FF;}
	.st3{fill:none;stroke:#2A5082;stroke-width:1;stroke-miterlimit:10;}
	.st4{fill:#FFFFFF;stroke:#2A5082;stroke-width:1;stroke-miterlimit:10;}
</style>
<circle class="st0" cx="35.5" cy="28.5" r="27.5"/>
<rect x="3" y="12" class="st1" width="55" height="30"/>
<path class="st2" d="M38,17H11v0c0,1.7-1.3,3-3,3l0,0v14c2,0,3,1.3,3,3l0,0h27V17z"/>
<polyline class="st3" points="39,42 3,42 3,12 38,12 "/>
<polyline class="st3" points="44,12 58,12 58,42 54,42 "/>
<line class="st3" x1="15" y1="27" x2="18" y2="27"/>
<line class="st3" x1="45" y1="27" x2="48" y2="27"/>
<ellipse class="st4" cx="30.5" cy="27" rx="5.5" ry="6"/>
<path class="st3" d="M38,17H11c0,1.7-1.3,3-3,3v14c2,0,3,1.3,3,3l27,0"/>
<path class="st3" d="M44,17h6c0,2,1.3,3.1,3,3.1V27"/>
<g>
	<line class="st3" x1="41" y1="6" x2="41" y2="10"/>
	<line class="st3" x1="41" y1="13" x2="41" y2="17"/>
	<line class="st3" x1="41" y1="20" x2="41" y2="24"/>
	<line class="st3" x1="41" y1="27" x2="41" y2="31"/>
	<line class="st3" x1="41" y1="34" x2="41" y2="38"/>
</g>
<path class="st3" d="M40,52l9.5,9.5c1.4,1.4,3.6,1.4,5,0l1-1c1.4-1.4,1.4-3.6,0-5l0,0c-1.4-1.4-3.6-1.4-5,0L50,56l-5-5"/>
<path class="st3" d="M37,49l-7,7l-0.5-0.5c-1.4-1.4-3.6-1.4-5,0l0,0c-1.4,1.4-1.4,3.6,0,5l1,1c1.4,1.4,3.6,1.4,5,0L50,42
	c2-2,3-4.6,3-7.4v-3.6L42,42"/>
<line class="st3" x1="40.1" y1="44.9" x2="37.2" y2="42"/>
<line class="st3" x1="35" y1="48" x2="29" y2="42"/>
</svg>
